-- Merging decision tree log ---
manifest
ADDED from /home/kaushal/AndroidStudioProjects/FoodTruck/app/src/main/AndroidManifest.xml:2:1-22:12
	package
		ADDED from /home/kaushal/AndroidStudioProjects/FoodTruck/app/src/main/AndroidManifest.xml:3:5-36
		INJECTED from /home/kaushal/AndroidStudioProjects/FoodTruck/app/src/main/AndroidManifest.xml
		INJECTED from /home/kaushal/AndroidStudioProjects/FoodTruck/app/src/main/AndroidManifest.xml
	android:versionName
		INJECTED from /home/kaushal/AndroidStudioProjects/FoodTruck/app/src/main/AndroidManifest.xml
		INJECTED from /home/kaushal/AndroidStudioProjects/FoodTruck/app/src/main/AndroidManifest.xml
	xmlns:android
		ADDED from /home/kaushal/AndroidStudioProjects/FoodTruck/app/src/main/AndroidManifest.xml:2:11-69
	android:versionCode
		INJECTED from /home/kaushal/AndroidStudioProjects/FoodTruck/app/src/main/AndroidManifest.xml
		INJECTED from /home/kaushal/AndroidStudioProjects/FoodTruck/app/src/main/AndroidManifest.xml
application
ADDED from /home/kaushal/AndroidStudioProjects/FoodTruck/app/src/main/AndroidManifest.xml:5:5-20:19
MERGED from [com.google.android.gms:play-services:11.0.4] /home/kaushal/.android/build-cache/171ea8109c605e614d5913462e2cc0cc9542ed71/output/AndroidManifest.xml:5:5-20
MERGED from [com.google.android.gms:play-services-ads-lite:11.0.4] /home/kaushal/.android/build-cache/4771794e21d9a8d70a3073bf1f4eb9b364d9a0ac/output/AndroidManifest.xml:23:5-26:19
MERGED from [com.google.android.gms:play-services-analytics:11.0.4] /home/kaushal/.android/build-cache/40577c3894caa14ad2d133a479f56562780f3b7e/output/AndroidManifest.xml:26:5-19
MERGED from [com.google.android.gms:play-services-appinvite:11.0.4] /home/kaushal/.android/build-cache/bca992585e1ad7da6933b2face7dd3cbe49ce1da/output/AndroidManifest.xml:19:5-26:19
MERGED from [com.google.android.gms:play-services-cast-framework:11.0.4] /home/kaushal/.android/build-cache/d86cb9b90d46d8ffd2a90298fbb7d42d3bbb5bd0/output/AndroidManifest.xml:4:5-8:19
MERGED from [com.google.android.gms:play-services-cast:11.0.4] /home/kaushal/.android/build-cache/e642a1f54f8ce609083e6391070c0628ccc2f3e8/output/AndroidManifest.xml:18:5-19
MERGED from [com.android.support:mediarouter-v7:25.2.0] /home/kaushal/.android/build-cache/f8763dbe490623fccc777c6b85c8140f53a1b355/output/AndroidManifest.xml:22:5-20
MERGED from [com.android.support:palette-v7:25.2.0] /home/kaushal/.android/build-cache/6144737c205de1cbf6aba54907455315e86cce48/output/AndroidManifest.xml:22:5-23:19
MERGED from [com.google.android.gms:play-services-clearcut:11.0.4] /home/kaushal/.android/build-cache/e826d6ada11c9bff9f442585709a6376419d748b/output/AndroidManifest.xml:18:5-19
MERGED from [com.google.firebase:firebase-config:11.0.4] /home/kaushal/.android/build-cache/25859bce5521cb8160cd6dc61fb13203bb2e8d88/output/AndroidManifest.xml:18:5-19
MERGED from [com.google.android.gms:play-services-awareness:11.0.4] /home/kaushal/.android/build-cache/2ebbdbd8730c8aad6556003e2abdde4fda0b68cf/output/AndroidManifest.xml:18:5-19
MERGED from [com.google.firebase:firebase-crash:11.0.4] /home/kaushal/.android/build-cache/bdb116a9c64a607394d6f3fb212f21f3e267ec78/output/AndroidManifest.xml:22:5-23:19
MERGED from [com.google.firebase:firebase-dynamic-links:11.0.4] /home/kaushal/.android/build-cache/47aa15b9293a471e897bc3d0e729d126329546f0/output/AndroidManifest.xml:5:3-17
MERGED from [com.google.firebase:firebase-messaging:11.0.4] /home/kaushal/.android/build-cache/120d97c85afcd30cf518c2b222351b09183fb935/output/AndroidManifest.xml:19:5-29:19
MERGED from [com.google.android.gms:play-services-fitness:11.0.4] /home/kaushal/.android/build-cache/d784ea5b5f0a42b71eb2197db728cdc09939c9c5/output/AndroidManifest.xml:18:5-19
MERGED from [com.google.android.gms:play-services-games:11.0.4] /home/kaushal/.android/build-cache/f4b4314ecd2e040e8779dbfa30408bdf7bbc349f/output/AndroidManifest.xml:18:5-19
MERGED from [com.google.android.gms:play-services-drive:11.0.4] /home/kaushal/.android/build-cache/351c68b22ea57ace0fdb73f062712339a718e419/output/AndroidManifest.xml:18:5-19
MERGED from [com.google.android.gms:play-services-gass:11.0.4] /home/kaushal/.android/build-cache/5ede96a562e108f82aa2ad4fd3bbbb3de47be1de/output/AndroidManifest.xml:4:5-19
MERGED from [com.google.android.gms:play-services-gcm:11.0.4] /home/kaushal/.android/build-cache/65f9d0e49313e05403565333986dae0e29c50180/output/AndroidManifest.xml:23:5-19
MERGED from [com.google.firebase:firebase-appindexing:11.0.4] /home/kaushal/.android/build-cache/84063479925c68c7606569a3888a1b71f0895e67/output/AndroidManifest.xml:18:5-19
MERGED from [com.google.android.gms:play-services-iid:11.0.4] /home/kaushal/.android/build-cache/05e30bc025408373e2e23bd8abeeb421d59a22ba/output/AndroidManifest.xml:23:5-19
MERGED from [com.google.android.gms:play-services-location:11.0.4] /home/kaushal/.android/build-cache/d9c35b3f8f7170c10fe522d75bfaa61a28f157bf/output/AndroidManifest.xml:4:5-19
MERGED from [com.google.android.gms:play-services-nearby:11.0.4] /home/kaushal/.android/build-cache/654ce78b4364c5c58c6faee81dc76ce179b29fef/output/AndroidManifest.xml:5:5-19
MERGED from [com.google.android.gms:play-services-panorama:11.0.4] /home/kaushal/.android/build-cache/49703128897850fbc483f7b61dc69d4836d26f79/output/AndroidManifest.xml:18:5-19
MERGED from [com.google.android.gms:play-services-places:11.0.4] /home/kaushal/.android/build-cache/3979177eccd0ce0470df930d456a977565a92dbb/output/AndroidManifest.xml:18:5-19
MERGED from [com.google.android.gms:play-services-plus:11.0.4] /home/kaushal/.android/build-cache/39d6608e55e27b3ba2d475847359a27f24978111/output/AndroidManifest.xml:18:5-19
MERGED from [com.google.android.gms:play-services-safetynet:11.0.4] /home/kaushal/.android/build-cache/ab0e59542f8f3b017e35413784ad621e71dc926d/output/AndroidManifest.xml:18:5-19
MERGED from [com.google.android.gms:play-services-tagmanager-api:11.0.4] /home/kaushal/.android/build-cache/ab37b7af87f864a719b39e7432497035d7f2d8c4/output/AndroidManifest.xml:23:5-33:19
MERGED from [com.google.android.gms:play-services-tagmanager-v4-impl:11.0.4] /home/kaushal/.android/build-cache/fbf8fa6a2527581ce1327c381a6d9b4fdf0f143e/output/AndroidManifest.xml:19:5-19
MERGED from [com.google.android.gms:play-services-analytics-impl:11.0.4] /home/kaushal/.android/build-cache/65cc8248a6042eb2e9dd038c20f91b1f38990e92/output/AndroidManifest.xml:26:5-19
MERGED from [com.google.android.gms:play-services-vision:11.0.4] /home/kaushal/.android/build-cache/ea2a07519513e3071c6eecf95245da2d0ab95163/output/AndroidManifest.xml:4:5-19
MERGED from [com.google.android.gms:play-services-vision-common:11.0.4] /home/kaushal/.android/build-cache/1867d1754ce4c90aaadc3200b6e5de7fc31c6287/output/AndroidManifest.xml:4:5-19
MERGED from [com.google.android.gms:play-services-identity:11.0.4] /home/kaushal/.android/build-cache/554a08401a6d3efdeac9909e1c956f3cd6bf5ae2/output/AndroidManifest.xml:18:5-19
MERGED from [com.google.android.gms:play-services-maps:11.0.4] /home/kaushal/.android/build-cache/776c3dcc10c431d34544caceff67c20be0223b9d/output/AndroidManifest.xml:24:5-19
MERGED from [com.google.android.gms:play-services-wearable:11.0.4] /home/kaushal/.android/build-cache/db3a659133ae306c1399dcbb4129cde72e7fa5eb/output/AndroidManifest.xml:18:5-19
MERGED from [com.firebaseui:firebase-ui-auth:2.3.0] /home/kaushal/.android/build-cache/c735100bc36e0d87eca244b8e65865d0c3de5a09/output/AndroidManifest.xml:15:5-77:19
MERGED from [com.android.support:design:26.0.1] /home/kaushal/.android/build-cache/b9f63f6d07031a90e0d9be65351bb6e67273d7f7/output/AndroidManifest.xml:25:5-29:19
MERGED from [com.android.support:appcompat-v7:26.0.1] /home/kaushal/.android/build-cache/0ead3767050f6954bb9047b8ebf9a1589c023bb5/output/AndroidManifest.xml:25:5-29:19
MERGED from [com.android.support:animated-vector-drawable:26.0.1] /home/kaushal/.android/build-cache/4052284945fbbc78e11ad7bdd01d33333513ddf8/output/AndroidManifest.xml:22:5-26:19
MERGED from [com.android.support:support-vector-drawable:26.0.1] /home/kaushal/.android/build-cache/49d20e436f634dfebf428fcc8ec622c4b75c1bb4/output/AndroidManifest.xml:22:5-26:19
MERGED from [com.android.support:recyclerview-v7:26.0.1] /home/kaushal/.android/build-cache/39fa55eb41a174c82f503b4b29a7e8f061cede20/output/AndroidManifest.xml:22:5-26:19
MERGED from [com.android.support:transition:26.0.1] /home/kaushal/.android/build-cache/dfceb27e6c8007d9ba8f387b556ee270dfe61ca1/output/AndroidManifest.xml:22:5-26:19
MERGED from [com.android.support:customtabs:26.0.1] /home/kaushal/.android/build-cache/4f82ff207204f77c409b7951ddfabc1f909f7ec2/output/AndroidManifest.xml:22:5-26:19
MERGED from [com.android.support.constraint:constraint-layout:1.1.0-beta1] /home/kaushal/.android/build-cache/3795d07ab964c74362cf7ec307a98cc10ba90178/output/AndroidManifest.xml:9:5-20
MERGED from [com.google.firebase:firebase-auth:11.0.4] /home/kaushal/.android/build-cache/34b1dd2bc67121c4dfce8a64a0bb3f38667cfaaf/output/AndroidManifest.xml:19:5-20:19
MERGED from [com.google.android.gms:play-services-auth:11.0.4] /home/kaushal/.android/build-cache/a52172e381e030c34509d80dd218a0603bc9fc17/output/AndroidManifest.xml:19:5-25:19
MERGED from [com.google.android.gms:play-services-base:11.0.4] /home/kaushal/.android/build-cache/43462244de4b3268ebf63b8b0c5faeaaa4ff7e00/output/AndroidManifest.xml:18:5-20:19
MERGED from [com.android.support:cardview-v7:26.0.1] /home/kaushal/.android/build-cache/78a0c72abcc0fd1a686882616737b74b3a418bb6/output/AndroidManifest.xml:22:5-26:19
MERGED from [com.google.firebase:firebase-core:11.0.4] /home/kaushal/.android/build-cache/459744629689fc5ccdc3cc1311742dad08e0374a/output/AndroidManifest.xml:5:5-20
MERGED from [com.google.firebase:firebase-analytics:11.0.4] /home/kaushal/.android/build-cache/49bd276f02df9a050cca62c5a2276ef36d48144b/output/AndroidManifest.xml:24:5-34:19
MERGED from [com.google.firebase:firebase-analytics-impl:11.0.4] /home/kaushal/.android/build-cache/d64b43b4a70c1eca2e8c9b068bd5a06f9d3f2573/output/AndroidManifest.xml:24:5-28:19
MERGED from [com.google.firebase:firebase-iid:11.0.4] /home/kaushal/.android/build-cache/325324efb54d23c29a28d15fa016bcb5ee2cb237/output/AndroidManifest.xml:28:5-49:19
MERGED from [com.google.firebase:firebase-common:11.0.4] /home/kaushal/.android/build-cache/e4b22029132db85db4f061e5f8657fdb5ca558b9/output/AndroidManifest.xml:4:5-7:19
MERGED from [com.google.android.gms:play-services-tasks:11.0.4] /home/kaushal/.android/build-cache/a7accc964fbd7771e3923fbb85902ad8b5b2db46/output/AndroidManifest.xml:4:5-19
MERGED from [com.google.android.gms:play-services-basement:11.0.4] /home/kaushal/.android/build-cache/aaca3df1de2cad6a65d8a41a40e834dd7a64a534/output/AndroidManifest.xml:19:5-21:19
MERGED from [com.android.support:support-v4:26.0.1] /home/kaushal/.android/build-cache/df23f151ed18be3186a82fa15c7896633c97e4a8/output/AndroidManifest.xml:25:5-29:19
MERGED from [com.android.support:support-media-compat:26.0.1] /home/kaushal/.android/build-cache/fddc78a1b0141086d120e55e04b5c9bbd53602a7/output/AndroidManifest.xml:25:5-29:19
MERGED from [com.android.support:support-fragment:26.0.1] /home/kaushal/.android/build-cache/38a64207e3f4373ab7b21874e153c42323d47b19/output/AndroidManifest.xml:25:5-29:19
MERGED from [com.android.support:support-core-ui:26.0.1] /home/kaushal/.android/build-cache/5c40f2461f0eea5917b6c6d62e93a85343130867/output/AndroidManifest.xml:25:5-29:19
MERGED from [com.android.support:support-core-utils:26.0.1] /home/kaushal/.android/build-cache/5a1a760a3ecdb2f7c628b9a94a39ff7f535bf3c9/output/AndroidManifest.xml:25:5-29:19
MERGED from [com.android.support:support-compat:26.0.1] /home/kaushal/.android/build-cache/40a0a301f011fcc769e3f6fac5a67598282d7994/output/AndroidManifest.xml:25:5-29:19
	android:label
		ADDED from /home/kaushal/AndroidStudioProjects/FoodTruck/app/src/main/AndroidManifest.xml:8:9-41
	android:supportsRtl
		ADDED from /home/kaushal/AndroidStudioProjects/FoodTruck/app/src/main/AndroidManifest.xml:10:9-35
	android:roundIcon
		ADDED from /home/kaushal/AndroidStudioProjects/FoodTruck/app/src/main/AndroidManifest.xml:9:9-54
	android:allowBackup
		ADDED from /home/kaushal/AndroidStudioProjects/FoodTruck/app/src/main/AndroidManifest.xml:6:9-35
	android:icon
		ADDED from /home/kaushal/AndroidStudioProjects/FoodTruck/app/src/main/AndroidManifest.xml:7:9-43
	android:theme
		ADDED from /home/kaushal/AndroidStudioProjects/FoodTruck/app/src/main/AndroidManifest.xml:11:9-40
activity#yuiop.qwert.foodtruck.view.MainActivity
ADDED from /home/kaushal/AndroidStudioProjects/FoodTruck/app/src/main/AndroidManifest.xml:12:9-18:20
	android:name
		ADDED from /home/kaushal/AndroidStudioProjects/FoodTruck/app/src/main/AndroidManifest.xml:12:19-52
intent-filter#android.intent.action.MAIN+android.intent.category.LAUNCHER
ADDED from /home/kaushal/AndroidStudioProjects/FoodTruck/app/src/main/AndroidManifest.xml:13:13-17:29
action#android.intent.action.MAIN
ADDED from /home/kaushal/AndroidStudioProjects/FoodTruck/app/src/main/AndroidManifest.xml:14:17-69
	android:name
		ADDED from /home/kaushal/AndroidStudioProjects/FoodTruck/app/src/main/AndroidManifest.xml:14:25-66
category#android.intent.category.LAUNCHER
ADDED from /home/kaushal/AndroidStudioProjects/FoodTruck/app/src/main/AndroidManifest.xml:16:17-77
	android:name
		ADDED from /home/kaushal/AndroidStudioProjects/FoodTruck/app/src/main/AndroidManifest.xml:16:27-74
activity#yuiop.qwert.foodtruck.view.Main2Activity
ADDED from /home/kaushal/AndroidStudioProjects/FoodTruck/app/src/main/AndroidManifest.xml:19:9-65
	android:name
		ADDED from /home/kaushal/AndroidStudioProjects/FoodTruck/app/src/main/AndroidManifest.xml:19:19-53
uses-sdk
INJECTED from /home/kaushal/AndroidStudioProjects/FoodTruck/app/src/main/AndroidManifest.xml reason: use-sdk injection requested
MERGED from [com.google.android.gms:play-services:11.0.4] /home/kaushal/.android/build-cache/171ea8109c605e614d5913462e2cc0cc9542ed71/output/AndroidManifest.xml:4:5-43
MERGED from [com.google.android.gms:play-services-ads:11.0.4] /home/kaushal/.android/build-cache/1dfa892d5679c1041757e8fa8354785d66b519b2/output/AndroidManifest.xml:17:5-43
MERGED from [com.google.android.gms:play-services-ads-lite:11.0.4] /home/kaushal/.android/build-cache/4771794e21d9a8d70a3073bf1f4eb9b364d9a0ac/output/AndroidManifest.xml:22:5-43
MERGED from [com.google.android.gms:play-services-analytics:11.0.4] /home/kaushal/.android/build-cache/40577c3894caa14ad2d133a479f56562780f3b7e/output/AndroidManifest.xml:17:5-43
MERGED from [com.google.android.gms:play-services-appinvite:11.0.4] /home/kaushal/.android/build-cache/bca992585e1ad7da6933b2face7dd3cbe49ce1da/output/AndroidManifest.xml:17:5-43
MERGED from [com.google.android.gms:play-services-auth-api-phone:11.0.4] /home/kaushal/.android/build-cache/219745675732d1a9cd66ac3822bd0922614cfa45/output/AndroidManifest.xml:3:3-41
MERGED from [com.google.android.gms:play-services-cast-framework:11.0.4] /home/kaushal/.android/build-cache/d86cb9b90d46d8ffd2a90298fbb7d42d3bbb5bd0/output/AndroidManifest.xml:3:5-43
MERGED from [com.google.android.gms:play-services-cast:11.0.4] /home/kaushal/.android/build-cache/e642a1f54f8ce609083e6391070c0628ccc2f3e8/output/AndroidManifest.xml:17:5-43
MERGED from [com.android.support:mediarouter-v7:25.2.0] /home/kaushal/.android/build-cache/f8763dbe490623fccc777c6b85c8140f53a1b355/output/AndroidManifest.xml:20:5-43
MERGED from [com.android.support:palette-v7:25.2.0] /home/kaushal/.android/build-cache/6144737c205de1cbf6aba54907455315e86cce48/output/AndroidManifest.xml:20:5-43
MERGED from [com.google.android.gms:play-services-clearcut:11.0.4] /home/kaushal/.android/build-cache/e826d6ada11c9bff9f442585709a6376419d748b/output/AndroidManifest.xml:17:5-43
MERGED from [com.google.firebase:firebase-config:11.0.4] /home/kaushal/.android/build-cache/25859bce5521cb8160cd6dc61fb13203bb2e8d88/output/AndroidManifest.xml:17:5-43
MERGED from [com.google.android.gms:play-services-awareness:11.0.4] /home/kaushal/.android/build-cache/2ebbdbd8730c8aad6556003e2abdde4fda0b68cf/output/AndroidManifest.xml:17:5-43
MERGED from [com.google.firebase:firebase-crash:11.0.4] /home/kaushal/.android/build-cache/bdb116a9c64a607394d6f3fb212f21f3e267ec78/output/AndroidManifest.xml:20:5-43
MERGED from [com.google.firebase:firebase-database:11.0.4] /home/kaushal/.android/build-cache/04da21f4c895a1c4d1bd3d744dc4dc8084a2b6d6/output/AndroidManifest.xml:3:5-43
MERGED from [com.google.firebase:firebase-database-connection:11.0.4] /home/kaushal/.android/build-cache/12fac93e2ccb338677b34404a474805f48e9e0e9/output/AndroidManifest.xml:3:5-43
MERGED from [com.google.firebase:firebase-dynamic-links:11.0.4] /home/kaushal/.android/build-cache/47aa15b9293a471e897bc3d0e729d126329546f0/output/AndroidManifest.xml:3:3-41
MERGED from [com.google.firebase:firebase-messaging:11.0.4] /home/kaushal/.android/build-cache/120d97c85afcd30cf518c2b222351b09183fb935/output/AndroidManifest.xml:17:5-43
MERGED from [com.google.firebase:firebase-storage:11.0.4] /home/kaushal/.android/build-cache/d6bf97d7fb8ff9b17ee4b7e38c3821743171a642/output/AndroidManifest.xml:3:5-43
MERGED from [com.google.firebase:firebase-storage-common:11.0.4] /home/kaushal/.android/build-cache/27e9f0d2fec8350cfd0a180d495f881c42431ffc/output/AndroidManifest.xml:3:5-43
MERGED from [com.google.android.gms:play-services-fitness:11.0.4] /home/kaushal/.android/build-cache/d784ea5b5f0a42b71eb2197db728cdc09939c9c5/output/AndroidManifest.xml:17:5-43
MERGED from [com.google.android.gms:play-services-games:11.0.4] /home/kaushal/.android/build-cache/f4b4314ecd2e040e8779dbfa30408bdf7bbc349f/output/AndroidManifest.xml:17:5-43
MERGED from [com.google.android.gms:play-services-drive:11.0.4] /home/kaushal/.android/build-cache/351c68b22ea57ace0fdb73f062712339a718e419/output/AndroidManifest.xml:17:5-43
MERGED from [com.google.android.gms:play-services-gass:11.0.4] /home/kaushal/.android/build-cache/5ede96a562e108f82aa2ad4fd3bbbb3de47be1de/output/AndroidManifest.xml:3:5-43
MERGED from [com.google.android.gms:play-services-gcm:11.0.4] /home/kaushal/.android/build-cache/65f9d0e49313e05403565333986dae0e29c50180/output/AndroidManifest.xml:17:5-43
MERGED from [com.google.firebase:firebase-appindexing:11.0.4] /home/kaushal/.android/build-cache/84063479925c68c7606569a3888a1b71f0895e67/output/AndroidManifest.xml:17:5-43
MERGED from [com.google.android.gms:play-services-iid:11.0.4] /home/kaushal/.android/build-cache/05e30bc025408373e2e23bd8abeeb421d59a22ba/output/AndroidManifest.xml:17:5-43
MERGED from [com.google.android.gms:play-services-instantapps:11.0.4] /home/kaushal/.android/build-cache/7852458b3aec8a010188f2bd281295e25ab1c65c/output/AndroidManifest.xml:3:5-43
MERGED from [com.google.android.gms:play-services-location:11.0.4] /home/kaushal/.android/build-cache/d9c35b3f8f7170c10fe522d75bfaa61a28f157bf/output/AndroidManifest.xml:3:5-43
MERGED from [com.google.android.gms:play-services-nearby:11.0.4] /home/kaushal/.android/build-cache/654ce78b4364c5c58c6faee81dc76ce179b29fef/output/AndroidManifest.xml:3:5-43
MERGED from [com.google.android.gms:play-services-panorama:11.0.4] /home/kaushal/.android/build-cache/49703128897850fbc483f7b61dc69d4836d26f79/output/AndroidManifest.xml:17:5-43
MERGED from [com.google.android.gms:play-services-places:11.0.4] /home/kaushal/.android/build-cache/3979177eccd0ce0470df930d456a977565a92dbb/output/AndroidManifest.xml:17:5-43
MERGED from [com.google.android.gms:play-services-plus:11.0.4] /home/kaushal/.android/build-cache/39d6608e55e27b3ba2d475847359a27f24978111/output/AndroidManifest.xml:17:5-43
MERGED from [com.google.android.gms:play-services-safetynet:11.0.4] /home/kaushal/.android/build-cache/ab0e59542f8f3b017e35413784ad621e71dc926d/output/AndroidManifest.xml:17:5-43
MERGED from [com.google.android.gms:play-services-tagmanager:11.0.4] /home/kaushal/.android/build-cache/ae28f10719ff0365f21ba7da0ffacabeb9aaf1cf/output/AndroidManifest.xml:17:5-43
MERGED from [com.google.android.gms:play-services-tagmanager-api:11.0.4] /home/kaushal/.android/build-cache/ab37b7af87f864a719b39e7432497035d7f2d8c4/output/AndroidManifest.xml:17:5-43
MERGED from [com.google.android.gms:play-services-tagmanager-v4-impl:11.0.4] /home/kaushal/.android/build-cache/fbf8fa6a2527581ce1327c381a6d9b4fdf0f143e/output/AndroidManifest.xml:17:5-43
MERGED from [com.google.android.gms:play-services-analytics-impl:11.0.4] /home/kaushal/.android/build-cache/65cc8248a6042eb2e9dd038c20f91b1f38990e92/output/AndroidManifest.xml:17:5-43
MERGED from [com.google.android.gms:play-services-vision:11.0.4] /home/kaushal/.android/build-cache/ea2a07519513e3071c6eecf95245da2d0ab95163/output/AndroidManifest.xml:3:5-43
MERGED from [com.google.android.gms:play-services-vision-common:11.0.4] /home/kaushal/.android/build-cache/1867d1754ce4c90aaadc3200b6e5de7fc31c6287/output/AndroidManifest.xml:3:5-43
MERGED from [com.google.android.gms:play-services-wallet:11.0.4] /home/kaushal/.android/build-cache/17144f41eeff937bf8e8e9a42e181bab7bbc4e9a/output/AndroidManifest.xml:18:5-43
MERGED from [com.google.android.gms:play-services-identity:11.0.4] /home/kaushal/.android/build-cache/554a08401a6d3efdeac9909e1c956f3cd6bf5ae2/output/AndroidManifest.xml:17:5-43
MERGED from [com.google.android.gms:play-services-maps:11.0.4] /home/kaushal/.android/build-cache/776c3dcc10c431d34544caceff67c20be0223b9d/output/AndroidManifest.xml:23:5-43
MERGED from [com.google.android.gms:play-services-wearable:11.0.4] /home/kaushal/.android/build-cache/db3a659133ae306c1399dcbb4129cde72e7fa5eb/output/AndroidManifest.xml:17:5-43
MERGED from [com.firebaseui:firebase-ui-auth:2.3.0] /home/kaushal/.android/build-cache/c735100bc36e0d87eca244b8e65865d0c3de5a09/output/AndroidManifest.xml:8:5-10:41
MERGED from [com.android.support:design:26.0.1] /home/kaushal/.android/build-cache/b9f63f6d07031a90e0d9be65351bb6e67273d7f7/output/AndroidManifest.xml:21:5-23:62
MERGED from [com.android.support:appcompat-v7:26.0.1] /home/kaushal/.android/build-cache/0ead3767050f6954bb9047b8ebf9a1589c023bb5/output/AndroidManifest.xml:21:5-23:78
MERGED from [com.android.support:animated-vector-drawable:26.0.1] /home/kaushal/.android/build-cache/4052284945fbbc78e11ad7bdd01d33333513ddf8/output/AndroidManifest.xml:20:5-44
MERGED from [com.android.support:support-vector-drawable:26.0.1] /home/kaushal/.android/build-cache/49d20e436f634dfebf428fcc8ec622c4b75c1bb4/output/AndroidManifest.xml:20:5-44
MERGED from [com.android.support:recyclerview-v7:26.0.1] /home/kaushal/.android/build-cache/39fa55eb41a174c82f503b4b29a7e8f061cede20/output/AndroidManifest.xml:20:5-44
MERGED from [com.android.support:transition:26.0.1] /home/kaushal/.android/build-cache/dfceb27e6c8007d9ba8f387b556ee270dfe61ca1/output/AndroidManifest.xml:20:5-44
MERGED from [com.android.support:customtabs:26.0.1] /home/kaushal/.android/build-cache/4f82ff207204f77c409b7951ddfabc1f909f7ec2/output/AndroidManifest.xml:20:5-44
MERGED from [com.android.support.constraint:constraint-layout:1.1.0-beta1] /home/kaushal/.android/build-cache/3795d07ab964c74362cf7ec307a98cc10ba90178/output/AndroidManifest.xml:5:5-7:41
MERGED from [com.google.firebase:firebase-auth:11.0.4] /home/kaushal/.android/build-cache/34b1dd2bc67121c4dfce8a64a0bb3f38667cfaaf/output/AndroidManifest.xml:17:5-43
MERGED from [com.google.android.gms:play-services-auth:11.0.4] /home/kaushal/.android/build-cache/a52172e381e030c34509d80dd218a0603bc9fc17/output/AndroidManifest.xml:17:5-43
MERGED from [com.google.android.gms:play-services-auth-base:11.0.4] /home/kaushal/.android/build-cache/e8a66f41d70ae977299d654585a165bec1b5d307/output/AndroidManifest.xml:4:5-43
MERGED from [com.google.android.gms:play-services-base:11.0.4] /home/kaushal/.android/build-cache/43462244de4b3268ebf63b8b0c5faeaaa4ff7e00/output/AndroidManifest.xml:17:5-43
MERGED from [com.android.support:cardview-v7:26.0.1] /home/kaushal/.android/build-cache/78a0c72abcc0fd1a686882616737b74b3a418bb6/output/AndroidManifest.xml:20:5-44
MERGED from [com.google.firebase:firebase-core:11.0.4] /home/kaushal/.android/build-cache/459744629689fc5ccdc3cc1311742dad08e0374a/output/AndroidManifest.xml:4:5-43
MERGED from [com.google.firebase:firebase-analytics:11.0.4] /home/kaushal/.android/build-cache/49bd276f02df9a050cca62c5a2276ef36d48144b/output/AndroidManifest.xml:17:5-43
MERGED from [com.google.firebase:firebase-analytics-impl:11.0.4] /home/kaushal/.android/build-cache/d64b43b4a70c1eca2e8c9b068bd5a06f9d3f2573/output/AndroidManifest.xml:17:5-43
MERGED from [com.google.firebase:firebase-iid:11.0.4] /home/kaushal/.android/build-cache/325324efb54d23c29a28d15fa016bcb5ee2cb237/output/AndroidManifest.xml:17:5-43
MERGED from [com.google.firebase:firebase-common:11.0.4] /home/kaushal/.android/build-cache/e4b22029132db85db4f061e5f8657fdb5ca558b9/output/AndroidManifest.xml:3:5-43
MERGED from [com.google.android.gms:play-services-tasks:11.0.4] /home/kaushal/.android/build-cache/a7accc964fbd7771e3923fbb85902ad8b5b2db46/output/AndroidManifest.xml:3:5-43
MERGED from [com.google.android.gms:play-services-basement:11.0.4] /home/kaushal/.android/build-cache/aaca3df1de2cad6a65d8a41a40e834dd7a64a534/output/AndroidManifest.xml:17:5-43
MERGED from [com.android.databinding:adapters:1.3.1] /home/kaushal/.android/build-cache/6dfaba3ae323ef10be5b655349a254365a2d0678/output/AndroidManifest.xml:22:5-24:41
MERGED from [com.android.databinding:library:1.3.1] /home/kaushal/.android/build-cache/aa04d122fda01023fd6a594045f2979d9ec106de/output/AndroidManifest.xml:22:5-24:41
MERGED from [com.android.support:support-v4:26.0.1] /home/kaushal/.android/build-cache/df23f151ed18be3186a82fa15c7896633c97e4a8/output/AndroidManifest.xml:21:5-23:54
MERGED from [com.android.support:support-media-compat:26.0.1] /home/kaushal/.android/build-cache/fddc78a1b0141086d120e55e04b5c9bbd53602a7/output/AndroidManifest.xml:21:5-23:63
MERGED from [com.android.support:support-fragment:26.0.1] /home/kaushal/.android/build-cache/38a64207e3f4373ab7b21874e153c42323d47b19/output/AndroidManifest.xml:21:5-23:60
MERGED from [com.android.support:support-core-ui:26.0.1] /home/kaushal/.android/build-cache/5c40f2461f0eea5917b6c6d62e93a85343130867/output/AndroidManifest.xml:21:5-23:58
MERGED from [com.android.support:support-core-utils:26.0.1] /home/kaushal/.android/build-cache/5a1a760a3ecdb2f7c628b9a94a39ff7f535bf3c9/output/AndroidManifest.xml:21:5-23:61
MERGED from [com.android.support:support-compat:26.0.1] /home/kaushal/.android/build-cache/40a0a301f011fcc769e3f6fac5a67598282d7994/output/AndroidManifest.xml:21:5-23:58
	tools:overrideLibrary
		ADDED from [com.android.support:design:26.0.1] /home/kaushal/.android/build-cache/b9f63f6d07031a90e0d9be65351bb6e67273d7f7/output/AndroidManifest.xml:23:9-59
	android:targetSdkVersion
		INJECTED from /home/kaushal/AndroidStudioProjects/FoodTruck/app/src/main/AndroidManifest.xml
		INJECTED from /home/kaushal/AndroidStudioProjects/FoodTruck/app/src/main/AndroidManifest.xml
	android:minSdkVersion
		INJECTED from /home/kaushal/AndroidStudioProjects/FoodTruck/app/src/main/AndroidManifest.xml
		INJECTED from /home/kaushal/AndroidStudioProjects/FoodTruck/app/src/main/AndroidManifest.xml
uses-permission#android.permission.INTERNET
ADDED from [com.google.android.gms:play-services-ads-lite:11.0.4] /home/kaushal/.android/build-cache/4771794e21d9a8d70a3073bf1f4eb9b364d9a0ac/output/AndroidManifest.xml:19:5-66
MERGED from [com.google.android.gms:play-services-analytics:11.0.4] /home/kaushal/.android/build-cache/40577c3894caa14ad2d133a479f56562780f3b7e/output/AndroidManifest.xml:20:5-66
MERGED from [com.google.android.gms:play-services-appinvite:11.0.4] /home/kaushal/.android/build-cache/bca992585e1ad7da6933b2face7dd3cbe49ce1da/output/AndroidManifest.xml:18:5-66
MERGED from [com.google.firebase:firebase-crash:11.0.4] /home/kaushal/.android/build-cache/bdb116a9c64a607394d6f3fb212f21f3e267ec78/output/AndroidManifest.xml:18:5-66
MERGED from [com.google.android.gms:play-services-gcm:11.0.4] /home/kaushal/.android/build-cache/65f9d0e49313e05403565333986dae0e29c50180/output/AndroidManifest.xml:21:5-66
MERGED from [com.google.android.gms:play-services-iid:11.0.4] /home/kaushal/.android/build-cache/05e30bc025408373e2e23bd8abeeb421d59a22ba/output/AndroidManifest.xml:21:5-66
MERGED from [com.google.android.gms:play-services-tagmanager-api:11.0.4] /home/kaushal/.android/build-cache/ab37b7af87f864a719b39e7432497035d7f2d8c4/output/AndroidManifest.xml:20:5-66
MERGED from [com.google.android.gms:play-services-analytics-impl:11.0.4] /home/kaushal/.android/build-cache/65cc8248a6042eb2e9dd038c20f91b1f38990e92/output/AndroidManifest.xml:20:5-66
MERGED from [com.google.android.gms:play-services-maps:11.0.4] /home/kaushal/.android/build-cache/776c3dcc10c431d34544caceff67c20be0223b9d/output/AndroidManifest.xml:20:5-66
MERGED from [com.firebaseui:firebase-ui-auth:2.3.0] /home/kaushal/.android/build-cache/c735100bc36e0d87eca244b8e65865d0c3de5a09/output/AndroidManifest.xml:13:5-67
MERGED from [com.google.firebase:firebase-analytics:11.0.4] /home/kaushal/.android/build-cache/49bd276f02df9a050cca62c5a2276ef36d48144b/output/AndroidManifest.xml:20:5-66
MERGED from [com.google.firebase:firebase-analytics-impl:11.0.4] /home/kaushal/.android/build-cache/d64b43b4a70c1eca2e8c9b068bd5a06f9d3f2573/output/AndroidManifest.xml:20:5-66
MERGED from [com.google.firebase:firebase-iid:11.0.4] /home/kaushal/.android/build-cache/325324efb54d23c29a28d15fa016bcb5ee2cb237/output/AndroidManifest.xml:20:5-66
	android:name
		ADDED from [com.google.android.gms:play-services-ads-lite:11.0.4] /home/kaushal/.android/build-cache/4771794e21d9a8d70a3073bf1f4eb9b364d9a0ac/output/AndroidManifest.xml:19:22-64
uses-permission#android.permission.ACCESS_NETWORK_STATE
ADDED from [com.google.android.gms:play-services-ads-lite:11.0.4] /home/kaushal/.android/build-cache/4771794e21d9a8d70a3073bf1f4eb9b364d9a0ac/output/AndroidManifest.xml:20:5-78
MERGED from [com.google.android.gms:play-services-analytics:11.0.4] /home/kaushal/.android/build-cache/40577c3894caa14ad2d133a479f56562780f3b7e/output/AndroidManifest.xml:21:5-78
MERGED from [com.google.android.gms:play-services-nearby:11.0.4] /home/kaushal/.android/build-cache/654ce78b4364c5c58c6faee81dc76ce179b29fef/output/AndroidManifest.xml:4:5-78
MERGED from [com.google.android.gms:play-services-tagmanager-api:11.0.4] /home/kaushal/.android/build-cache/ab37b7af87f864a719b39e7432497035d7f2d8c4/output/AndroidManifest.xml:21:5-78
MERGED from [com.google.android.gms:play-services-analytics-impl:11.0.4] /home/kaushal/.android/build-cache/65cc8248a6042eb2e9dd038c20f91b1f38990e92/output/AndroidManifest.xml:21:5-78
MERGED from [com.google.android.gms:play-services-maps:11.0.4] /home/kaushal/.android/build-cache/776c3dcc10c431d34544caceff67c20be0223b9d/output/AndroidManifest.xml:19:5-78
MERGED from [com.firebaseui:firebase-ui-auth:2.3.0] /home/kaushal/.android/build-cache/c735100bc36e0d87eca244b8e65865d0c3de5a09/output/AndroidManifest.xml:12:5-79
MERGED from [com.google.firebase:firebase-analytics:11.0.4] /home/kaushal/.android/build-cache/49bd276f02df9a050cca62c5a2276ef36d48144b/output/AndroidManifest.xml:21:5-78
MERGED from [com.google.firebase:firebase-analytics-impl:11.0.4] /home/kaushal/.android/build-cache/d64b43b4a70c1eca2e8c9b068bd5a06f9d3f2573/output/AndroidManifest.xml:21:5-78
MERGED from [com.google.firebase:firebase-iid:11.0.4] /home/kaushal/.android/build-cache/325324efb54d23c29a28d15fa016bcb5ee2cb237/output/AndroidManifest.xml:19:5-78
	android:name
		ADDED from [com.google.android.gms:play-services-ads-lite:11.0.4] /home/kaushal/.android/build-cache/4771794e21d9a8d70a3073bf1f4eb9b364d9a0ac/output/AndroidManifest.xml:20:22-76
activity#com.google.android.gms.ads.AdActivity
ADDED from [com.google.android.gms:play-services-ads-lite:11.0.4] /home/kaushal/.android/build-cache/4771794e21d9a8d70a3073bf1f4eb9b364d9a0ac/output/AndroidManifest.xml:25:9-232
	android:configChanges
		ADDED from [com.google.android.gms:play-services-ads-lite:11.0.4] /home/kaushal/.android/build-cache/4771794e21d9a8d70a3073bf1f4eb9b364d9a0ac/output/AndroidManifest.xml:25:72-181
	android:theme
		ADDED from [com.google.android.gms:play-services-ads-lite:11.0.4] /home/kaushal/.android/build-cache/4771794e21d9a8d70a3073bf1f4eb9b364d9a0ac/output/AndroidManifest.xml:25:182-230
	android:name
		ADDED from [com.google.android.gms:play-services-ads-lite:11.0.4] /home/kaushal/.android/build-cache/4771794e21d9a8d70a3073bf1f4eb9b364d9a0ac/output/AndroidManifest.xml:25:19-71
uses-permission#android.permission.WAKE_LOCK
ADDED from [com.google.android.gms:play-services-analytics:11.0.4] /home/kaushal/.android/build-cache/40577c3894caa14ad2d133a479f56562780f3b7e/output/AndroidManifest.xml:24:5-67
MERGED from [com.google.android.gms:play-services-analytics-impl:11.0.4] /home/kaushal/.android/build-cache/65cc8248a6042eb2e9dd038c20f91b1f38990e92/output/AndroidManifest.xml:24:5-67
MERGED from [com.google.firebase:firebase-analytics:11.0.4] /home/kaushal/.android/build-cache/49bd276f02df9a050cca62c5a2276ef36d48144b/output/AndroidManifest.xml:22:5-67
MERGED from [com.google.firebase:firebase-analytics-impl:11.0.4] /home/kaushal/.android/build-cache/d64b43b4a70c1eca2e8c9b068bd5a06f9d3f2573/output/AndroidManifest.xml:22:5-67
MERGED from [com.google.firebase:firebase-iid:11.0.4] /home/kaushal/.android/build-cache/325324efb54d23c29a28d15fa016bcb5ee2cb237/output/AndroidManifest.xml:21:5-67
	android:name
		ADDED from [com.google.android.gms:play-services-analytics:11.0.4] /home/kaushal/.android/build-cache/40577c3894caa14ad2d133a479f56562780f3b7e/output/AndroidManifest.xml:24:22-65
activity#com.google.android.gms.appinvite.PreviewActivity
ADDED from [com.google.android.gms:play-services-appinvite:11.0.4] /home/kaushal/.android/build-cache/bca992585e1ad7da6933b2face7dd3cbe49ce1da/output/AndroidManifest.xml:20:9-25:20
	android:exported
		ADDED from [com.google.android.gms:play-services-appinvite:11.0.4] /home/kaushal/.android/build-cache/bca992585e1ad7da6933b2face7dd3cbe49ce1da/output/AndroidManifest.xml:20:51-74
	android:theme
		ADDED from [com.google.android.gms:play-services-appinvite:11.0.4] /home/kaushal/.android/build-cache/bca992585e1ad7da6933b2face7dd3cbe49ce1da/output/AndroidManifest.xml:20:75-121
	android:name
		ADDED from [com.google.android.gms:play-services-appinvite:11.0.4] /home/kaushal/.android/build-cache/bca992585e1ad7da6933b2face7dd3cbe49ce1da/output/AndroidManifest.xml:20:19-50
intent-filter#android.intent.category.DEFAULT+com.google.android.gms.appinvite.ACTION_PREVIEW
ADDED from [com.google.android.gms:play-services-appinvite:11.0.4] /home/kaushal/.android/build-cache/bca992585e1ad7da6933b2face7dd3cbe49ce1da/output/AndroidManifest.xml:21:13-24:29
action#com.google.android.gms.appinvite.ACTION_PREVIEW
ADDED from [com.google.android.gms:play-services-appinvite:11.0.4] /home/kaushal/.android/build-cache/bca992585e1ad7da6933b2face7dd3cbe49ce1da/output/AndroidManifest.xml:22:17-89
	android:name
		ADDED from [com.google.android.gms:play-services-appinvite:11.0.4] /home/kaushal/.android/build-cache/bca992585e1ad7da6933b2face7dd3cbe49ce1da/output/AndroidManifest.xml:22:25-87
category#android.intent.category.DEFAULT
ADDED from [com.google.android.gms:play-services-appinvite:11.0.4] /home/kaushal/.android/build-cache/bca992585e1ad7da6933b2face7dd3cbe49ce1da/output/AndroidManifest.xml:23:17-75
	android:name
		ADDED from [com.google.android.gms:play-services-appinvite:11.0.4] /home/kaushal/.android/build-cache/bca992585e1ad7da6933b2face7dd3cbe49ce1da/output/AndroidManifest.xml:23:27-73
receiver#com.google.android.gms.cast.framework.media.MediaIntentReceiver
ADDED from [com.google.android.gms:play-services-cast-framework:11.0.4] /home/kaushal/.android/build-cache/d86cb9b90d46d8ffd2a90298fbb7d42d3bbb5bd0/output/AndroidManifest.xml:5:9-99
	android:name
		ADDED from [com.google.android.gms:play-services-cast-framework:11.0.4] /home/kaushal/.android/build-cache/d86cb9b90d46d8ffd2a90298fbb7d42d3bbb5bd0/output/AndroidManifest.xml:5:19-97
service#com.google.android.gms.cast.framework.media.MediaNotificationService
ADDED from [com.google.android.gms:play-services-cast-framework:11.0.4] /home/kaushal/.android/build-cache/d86cb9b90d46d8ffd2a90298fbb7d42d3bbb5bd0/output/AndroidManifest.xml:6:9-103
	android:name
		ADDED from [com.google.android.gms:play-services-cast-framework:11.0.4] /home/kaushal/.android/build-cache/d86cb9b90d46d8ffd2a90298fbb7d42d3bbb5bd0/output/AndroidManifest.xml:6:18-101
service#com.google.android.gms.cast.framework.ReconnectionService
ADDED from [com.google.android.gms:play-services-cast-framework:11.0.4] /home/kaushal/.android/build-cache/d86cb9b90d46d8ffd2a90298fbb7d42d3bbb5bd0/output/AndroidManifest.xml:7:9-92
	android:name
		ADDED from [com.google.android.gms:play-services-cast-framework:11.0.4] /home/kaushal/.android/build-cache/d86cb9b90d46d8ffd2a90298fbb7d42d3bbb5bd0/output/AndroidManifest.xml:7:18-90
service#com.google.firebase.messaging.FirebaseMessagingService
ADDED from [com.google.firebase:firebase-messaging:11.0.4] /home/kaushal/.android/build-cache/120d97c85afcd30cf518c2b222351b09183fb935/output/AndroidManifest.xml:23:9-27:19
	android:exported
		ADDED from [com.google.firebase:firebase-messaging:11.0.4] /home/kaushal/.android/build-cache/120d97c85afcd30cf518c2b222351b09183fb935/output/AndroidManifest.xml:23:88-111
	android:name
		ADDED from [com.google.firebase:firebase-messaging:11.0.4] /home/kaushal/.android/build-cache/120d97c85afcd30cf518c2b222351b09183fb935/output/AndroidManifest.xml:23:18-87
intent-filter#com.google.firebase.MESSAGING_EVENT
ADDED from [com.google.firebase:firebase-messaging:11.0.4] /home/kaushal/.android/build-cache/120d97c85afcd30cf518c2b222351b09183fb935/output/AndroidManifest.xml:24:13-26:29
	android:priority
		ADDED from [com.google.firebase:firebase-messaging:11.0.4] /home/kaushal/.android/build-cache/120d97c85afcd30cf518c2b222351b09183fb935/output/AndroidManifest.xml:24:28-51
action#com.google.firebase.MESSAGING_EVENT
ADDED from [com.google.firebase:firebase-messaging:11.0.4] /home/kaushal/.android/build-cache/120d97c85afcd30cf518c2b222351b09183fb935/output/AndroidManifest.xml:25:17-77
	android:name
		ADDED from [com.google.firebase:firebase-messaging:11.0.4] /home/kaushal/.android/build-cache/120d97c85afcd30cf518c2b222351b09183fb935/output/AndroidManifest.xml:25:25-75
uses-permission#com.google.android.c2dm.permission.RECEIVE
ADDED from [com.google.android.gms:play-services-gcm:11.0.4] /home/kaushal/.android/build-cache/65f9d0e49313e05403565333986dae0e29c50180/output/AndroidManifest.xml:20:5-81
MERGED from [com.google.android.gms:play-services-iid:11.0.4] /home/kaushal/.android/build-cache/05e30bc025408373e2e23bd8abeeb421d59a22ba/output/AndroidManifest.xml:20:5-81
MERGED from [com.google.firebase:firebase-iid:11.0.4] /home/kaushal/.android/build-cache/325324efb54d23c29a28d15fa016bcb5ee2cb237/output/AndroidManifest.xml:22:5-81
	android:name
		ADDED from [com.google.android.gms:play-services-gcm:11.0.4] /home/kaushal/.android/build-cache/65f9d0e49313e05403565333986dae0e29c50180/output/AndroidManifest.xml:20:22-79
service#com.google.android.gms.tagmanager.TagManagerService
ADDED from [com.google.android.gms:play-services-tagmanager-api:11.0.4] /home/kaushal/.android/build-cache/ab37b7af87f864a719b39e7432497035d7f2d8c4/output/AndroidManifest.xml:24:9-134
	android:enabled
		ADDED from [com.google.android.gms:play-services-tagmanager-api:11.0.4] /home/kaushal/.android/build-cache/ab37b7af87f864a719b39e7432497035d7f2d8c4/output/AndroidManifest.xml:24:110-132
	android:exported
		ADDED from [com.google.android.gms:play-services-tagmanager-api:11.0.4] /home/kaushal/.android/build-cache/ab37b7af87f864a719b39e7432497035d7f2d8c4/output/AndroidManifest.xml:24:85-109
	android:name
		ADDED from [com.google.android.gms:play-services-tagmanager-api:11.0.4] /home/kaushal/.android/build-cache/ab37b7af87f864a719b39e7432497035d7f2d8c4/output/AndroidManifest.xml:24:18-84
activity#com.google.android.gms.tagmanager.TagManagerPreviewActivity
ADDED from [com.google.android.gms:play-services-tagmanager-api:11.0.4] /home/kaushal/.android/build-cache/ab37b7af87f864a719b39e7432497035d7f2d8c4/output/AndroidManifest.xml:25:9-32:20
	android:exported
		ADDED from [com.google.android.gms:play-services-tagmanager-api:11.0.4] /home/kaushal/.android/build-cache/ab37b7af87f864a719b39e7432497035d7f2d8c4/output/AndroidManifest.xml:25:94-117
	android:noHistory
		ADDED from [com.google.android.gms:play-services-tagmanager-api:11.0.4] /home/kaushal/.android/build-cache/ab37b7af87f864a719b39e7432497035d7f2d8c4/output/AndroidManifest.xml:25:118-142
	android:name
		ADDED from [com.google.android.gms:play-services-tagmanager-api:11.0.4] /home/kaushal/.android/build-cache/ab37b7af87f864a719b39e7432497035d7f2d8c4/output/AndroidManifest.xml:25:19-93
intent-filter#android.intent.action.VIEW+android.intent.category.BROWSABLE+android.intent.category.DEFAULT
ADDED from [com.google.android.gms:play-services-tagmanager-api:11.0.4] /home/kaushal/.android/build-cache/ab37b7af87f864a719b39e7432497035d7f2d8c4/output/AndroidManifest.xml:26:13-31:29
data
ADDED from [com.google.android.gms:play-services-tagmanager-api:11.0.4] /home/kaushal/.android/build-cache/ab37b7af87f864a719b39e7432497035d7f2d8c4/output/AndroidManifest.xml:27:17-71
	android:scheme
		ADDED from [com.google.android.gms:play-services-tagmanager-api:11.0.4] /home/kaushal/.android/build-cache/ab37b7af87f864a719b39e7432497035d7f2d8c4/output/AndroidManifest.xml:27:23-69
action#android.intent.action.VIEW
ADDED from [com.google.android.gms:play-services-tagmanager-api:11.0.4] /home/kaushal/.android/build-cache/ab37b7af87f864a719b39e7432497035d7f2d8c4/output/AndroidManifest.xml:28:17-68
	android:name
		ADDED from [com.google.android.gms:play-services-tagmanager-api:11.0.4] /home/kaushal/.android/build-cache/ab37b7af87f864a719b39e7432497035d7f2d8c4/output/AndroidManifest.xml:28:25-66
category#android.intent.category.BROWSABLE
ADDED from [com.google.android.gms:play-services-tagmanager-api:11.0.4] /home/kaushal/.android/build-cache/ab37b7af87f864a719b39e7432497035d7f2d8c4/output/AndroidManifest.xml:30:17-77
	android:name
		ADDED from [com.google.android.gms:play-services-tagmanager-api:11.0.4] /home/kaushal/.android/build-cache/ab37b7af87f864a719b39e7432497035d7f2d8c4/output/AndroidManifest.xml:30:27-75
uses-feature#0x00020000
ADDED from [com.google.android.gms:play-services-maps:11.0.4] /home/kaushal/.android/build-cache/776c3dcc10c431d34544caceff67c20be0223b9d/output/AndroidManifest.xml:21:5-77
	android:glEsVersion
		ADDED from [com.google.android.gms:play-services-maps:11.0.4] /home/kaushal/.android/build-cache/776c3dcc10c431d34544caceff67c20be0223b9d/output/AndroidManifest.xml:21:19-51
	android:required
		ADDED from [com.google.android.gms:play-services-maps:11.0.4] /home/kaushal/.android/build-cache/776c3dcc10c431d34544caceff67c20be0223b9d/output/AndroidManifest.xml:21:52-75
meta-data#com.google.android.gms.version
ADDED from [com.firebaseui:firebase-ui-auth:2.3.0] /home/kaushal/.android/build-cache/c735100bc36e0d87eca244b8e65865d0c3de5a09/output/AndroidManifest.xml:16:9-18:69
MERGED from [com.google.android.gms:play-services-basement:11.0.4] /home/kaushal/.android/build-cache/aaca3df1de2cad6a65d8a41a40e834dd7a64a534/output/AndroidManifest.xml:20:9-121
	android:value
		ADDED from [com.firebaseui:firebase-ui-auth:2.3.0] /home/kaushal/.android/build-cache/c735100bc36e0d87eca244b8e65865d0c3de5a09/output/AndroidManifest.xml:18:13-66
	android:name
		ADDED from [com.firebaseui:firebase-ui-auth:2.3.0] /home/kaushal/.android/build-cache/c735100bc36e0d87eca244b8e65865d0c3de5a09/output/AndroidManifest.xml:17:13-58
meta-data#io.fabric.ApiKey
ADDED from [com.firebaseui:firebase-ui-auth:2.3.0] /home/kaushal/.android/build-cache/c735100bc36e0d87eca244b8e65865d0c3de5a09/output/AndroidManifest.xml:19:9-21:63
	android:value
		ADDED from [com.firebaseui:firebase-ui-auth:2.3.0] /home/kaushal/.android/build-cache/c735100bc36e0d87eca244b8e65865d0c3de5a09/output/AndroidManifest.xml:21:13-60
	android:name
		ADDED from [com.firebaseui:firebase-ui-auth:2.3.0] /home/kaushal/.android/build-cache/c735100bc36e0d87eca244b8e65865d0c3de5a09/output/AndroidManifest.xml:20:13-44
meta-data#com.facebook.sdk.ApplicationId
ADDED from [com.firebaseui:firebase-ui-auth:2.3.0] /home/kaushal/.android/build-cache/c735100bc36e0d87eca244b8e65865d0c3de5a09/output/AndroidManifest.xml:22:9-24:63
	android:value
		ADDED from [com.firebaseui:firebase-ui-auth:2.3.0] /home/kaushal/.android/build-cache/c735100bc36e0d87eca244b8e65865d0c3de5a09/output/AndroidManifest.xml:24:13-60
	android:name
		ADDED from [com.firebaseui:firebase-ui-auth:2.3.0] /home/kaushal/.android/build-cache/c735100bc36e0d87eca244b8e65865d0c3de5a09/output/AndroidManifest.xml:23:13-58
meta-data#com.facebook.sdk.AutoLogAppEventsEnabled
ADDED from [com.firebaseui:firebase-ui-auth:2.3.0] /home/kaushal/.android/build-cache/c735100bc36e0d87eca244b8e65865d0c3de5a09/output/AndroidManifest.xml:25:9-27:36
	android:value
		ADDED from [com.firebaseui:firebase-ui-auth:2.3.0] /home/kaushal/.android/build-cache/c735100bc36e0d87eca244b8e65865d0c3de5a09/output/AndroidManifest.xml:27:13-33
	android:name
		ADDED from [com.firebaseui:firebase-ui-auth:2.3.0] /home/kaushal/.android/build-cache/c735100bc36e0d87eca244b8e65865d0c3de5a09/output/AndroidManifest.xml:26:13-68
activity#com.firebase.ui.auth.KickoffActivity
ADDED from [com.firebaseui:firebase-ui-auth:2.3.0] /home/kaushal/.android/build-cache/c735100bc36e0d87eca244b8e65865d0c3de5a09/output/AndroidManifest.xml:29:9-33:61
	android:label
		ADDED from [com.firebaseui:firebase-ui-auth:2.3.0] /home/kaushal/.android/build-cache/c735100bc36e0d87eca244b8e65865d0c3de5a09/output/AndroidManifest.xml:32:13-29
	android:exported
		ADDED from [com.firebaseui:firebase-ui-auth:2.3.0] /home/kaushal/.android/build-cache/c735100bc36e0d87eca244b8e65865d0c3de5a09/output/AndroidManifest.xml:31:13-37
	android:theme
		ADDED from [com.firebaseui:firebase-ui-auth:2.3.0] /home/kaushal/.android/build-cache/c735100bc36e0d87eca244b8e65865d0c3de5a09/output/AndroidManifest.xml:33:13-58
	android:name
		ADDED from [com.firebaseui:firebase-ui-auth:2.3.0] /home/kaushal/.android/build-cache/c735100bc36e0d87eca244b8e65865d0c3de5a09/output/AndroidManifest.xml:30:13-64
activity#com.firebase.ui.auth.ui.email.RecoverPasswordActivity
ADDED from [com.firebaseui:firebase-ui-auth:2.3.0] /home/kaushal/.android/build-cache/c735100bc36e0d87eca244b8e65865d0c3de5a09/output/AndroidManifest.xml:34:9-37:75
	android:label
		ADDED from [com.firebaseui:firebase-ui-auth:2.3.0] /home/kaushal/.android/build-cache/c735100bc36e0d87eca244b8e65865d0c3de5a09/output/AndroidManifest.xml:37:13-72
	android:exported
		ADDED from [com.firebaseui:firebase-ui-auth:2.3.0] /home/kaushal/.android/build-cache/c735100bc36e0d87eca244b8e65865d0c3de5a09/output/AndroidManifest.xml:36:13-37
	android:name
		ADDED from [com.firebaseui:firebase-ui-auth:2.3.0] /home/kaushal/.android/build-cache/c735100bc36e0d87eca244b8e65865d0c3de5a09/output/AndroidManifest.xml:35:13-81
activity#com.firebase.ui.auth.ui.email.RegisterEmailActivity
ADDED from [com.firebaseui:firebase-ui-auth:2.3.0] /home/kaushal/.android/build-cache/c735100bc36e0d87eca244b8e65865d0c3de5a09/output/AndroidManifest.xml:38:9-41:59
	android:label
		ADDED from [com.firebaseui:firebase-ui-auth:2.3.0] /home/kaushal/.android/build-cache/c735100bc36e0d87eca244b8e65865d0c3de5a09/output/AndroidManifest.xml:41:13-56
	android:exported
		ADDED from [com.firebaseui:firebase-ui-auth:2.3.0] /home/kaushal/.android/build-cache/c735100bc36e0d87eca244b8e65865d0c3de5a09/output/AndroidManifest.xml:40:13-37
	android:name
		ADDED from [com.firebaseui:firebase-ui-auth:2.3.0] /home/kaushal/.android/build-cache/c735100bc36e0d87eca244b8e65865d0c3de5a09/output/AndroidManifest.xml:39:13-79
activity#com.firebase.ui.auth.ui.phone.PhoneVerificationActivity
ADDED from [com.firebaseui:firebase-ui-auth:2.3.0] /home/kaushal/.android/build-cache/c735100bc36e0d87eca244b8e65865d0c3de5a09/output/AndroidManifest.xml:42:9-46:64
	android:label
		ADDED from [com.firebaseui:firebase-ui-auth:2.3.0] /home/kaushal/.android/build-cache/c735100bc36e0d87eca244b8e65865d0c3de5a09/output/AndroidManifest.xml:45:13-66
	android:exported
		ADDED from [com.firebaseui:firebase-ui-auth:2.3.0] /home/kaushal/.android/build-cache/c735100bc36e0d87eca244b8e65865d0c3de5a09/output/AndroidManifest.xml:44:13-37
	android:windowSoftInputMode
		ADDED from [com.firebaseui:firebase-ui-auth:2.3.0] /home/kaushal/.android/build-cache/c735100bc36e0d87eca244b8e65865d0c3de5a09/output/AndroidManifest.xml:46:13-61
	android:name
		ADDED from [com.firebaseui:firebase-ui-auth:2.3.0] /home/kaushal/.android/build-cache/c735100bc36e0d87eca244b8e65865d0c3de5a09/output/AndroidManifest.xml:43:13-83
activity#com.firebase.ui.auth.ui.accountlink.WelcomeBackIdpPrompt
ADDED from [com.firebaseui:firebase-ui-auth:2.3.0] /home/kaushal/.android/build-cache/c735100bc36e0d87eca244b8e65865d0c3de5a09/output/AndroidManifest.xml:47:9-50:73
	android:label
		ADDED from [com.firebaseui:firebase-ui-auth:2.3.0] /home/kaushal/.android/build-cache/c735100bc36e0d87eca244b8e65865d0c3de5a09/output/AndroidManifest.xml:50:13-70
	android:exported
		ADDED from [com.firebaseui:firebase-ui-auth:2.3.0] /home/kaushal/.android/build-cache/c735100bc36e0d87eca244b8e65865d0c3de5a09/output/AndroidManifest.xml:49:13-37
	android:name
		ADDED from [com.firebaseui:firebase-ui-auth:2.3.0] /home/kaushal/.android/build-cache/c735100bc36e0d87eca244b8e65865d0c3de5a09/output/AndroidManifest.xml:48:13-84
activity#com.firebase.ui.auth.ui.accountlink.WelcomeBackPasswordPrompt
ADDED from [com.firebaseui:firebase-ui-auth:2.3.0] /home/kaushal/.android/build-cache/c735100bc36e0d87eca244b8e65865d0c3de5a09/output/AndroidManifest.xml:51:9-54:78
	android:label
		ADDED from [com.firebaseui:firebase-ui-auth:2.3.0] /home/kaushal/.android/build-cache/c735100bc36e0d87eca244b8e65865d0c3de5a09/output/AndroidManifest.xml:54:13-75
	android:exported
		ADDED from [com.firebaseui:firebase-ui-auth:2.3.0] /home/kaushal/.android/build-cache/c735100bc36e0d87eca244b8e65865d0c3de5a09/output/AndroidManifest.xml:53:13-37
	android:name
		ADDED from [com.firebaseui:firebase-ui-auth:2.3.0] /home/kaushal/.android/build-cache/c735100bc36e0d87eca244b8e65865d0c3de5a09/output/AndroidManifest.xml:52:13-89
activity#com.firebase.ui.auth.ui.idp.AuthMethodPickerActivity
ADDED from [com.firebaseui:firebase-ui-auth:2.3.0] /home/kaushal/.android/build-cache/c735100bc36e0d87eca244b8e65865d0c3de5a09/output/AndroidManifest.xml:55:9-58:65
	android:label
		ADDED from [com.firebaseui:firebase-ui-auth:2.3.0] /home/kaushal/.android/build-cache/c735100bc36e0d87eca244b8e65865d0c3de5a09/output/AndroidManifest.xml:58:13-62
	android:exported
		ADDED from [com.firebaseui:firebase-ui-auth:2.3.0] /home/kaushal/.android/build-cache/c735100bc36e0d87eca244b8e65865d0c3de5a09/output/AndroidManifest.xml:57:13-37
	android:name
		ADDED from [com.firebaseui:firebase-ui-auth:2.3.0] /home/kaushal/.android/build-cache/c735100bc36e0d87eca244b8e65865d0c3de5a09/output/AndroidManifest.xml:56:13-80
activity#com.facebook.FacebookActivity
ADDED from [com.firebaseui:firebase-ui-auth:2.3.0] /home/kaushal/.android/build-cache/c735100bc36e0d87eca244b8e65865d0c3de5a09/output/AndroidManifest.xml:59:9-63:48
	android:label
		ADDED from [com.firebaseui:firebase-ui-auth:2.3.0] /home/kaushal/.android/build-cache/c735100bc36e0d87eca244b8e65865d0c3de5a09/output/AndroidManifest.xml:62:13-45
	tools:ignore
		ADDED from [com.firebaseui:firebase-ui-auth:2.3.0] /home/kaushal/.android/build-cache/c735100bc36e0d87eca244b8e65865d0c3de5a09/output/AndroidManifest.xml:63:13-45
	android:configChanges
		ADDED from [com.firebaseui:firebase-ui-auth:2.3.0] /home/kaushal/.android/build-cache/c735100bc36e0d87eca244b8e65865d0c3de5a09/output/AndroidManifest.xml:61:13-96
	android:name
		ADDED from [com.firebaseui:firebase-ui-auth:2.3.0] /home/kaushal/.android/build-cache/c735100bc36e0d87eca244b8e65865d0c3de5a09/output/AndroidManifest.xml:60:13-57
activity#com.facebook.CustomTabActivity
ADDED from [com.firebaseui:firebase-ui-auth:2.3.0] /home/kaushal/.android/build-cache/c735100bc36e0d87eca244b8e65865d0c3de5a09/output/AndroidManifest.xml:64:9-76:20
	android:exported
		ADDED from [com.firebaseui:firebase-ui-auth:2.3.0] /home/kaushal/.android/build-cache/c735100bc36e0d87eca244b8e65865d0c3de5a09/output/AndroidManifest.xml:66:13-36
	tools:ignore
		ADDED from [com.firebaseui:firebase-ui-auth:2.3.0] /home/kaushal/.android/build-cache/c735100bc36e0d87eca244b8e65865d0c3de5a09/output/AndroidManifest.xml:67:13-45
	android:name
		ADDED from [com.firebaseui:firebase-ui-auth:2.3.0] /home/kaushal/.android/build-cache/c735100bc36e0d87eca244b8e65865d0c3de5a09/output/AndroidManifest.xml:65:13-58
meta-data#android.support.VERSION
ADDED from [com.android.support:design:26.0.1] /home/kaushal/.android/build-cache/b9f63f6d07031a90e0d9be65351bb6e67273d7f7/output/AndroidManifest.xml:26:9-28:38
MERGED from [com.android.support:appcompat-v7:26.0.1] /home/kaushal/.android/build-cache/0ead3767050f6954bb9047b8ebf9a1589c023bb5/output/AndroidManifest.xml:26:9-28:38
MERGED from [com.android.support:animated-vector-drawable:26.0.1] /home/kaushal/.android/build-cache/4052284945fbbc78e11ad7bdd01d33333513ddf8/output/AndroidManifest.xml:23:9-25:38
MERGED from [com.android.support:support-vector-drawable:26.0.1] /home/kaushal/.android/build-cache/49d20e436f634dfebf428fcc8ec622c4b75c1bb4/output/AndroidManifest.xml:23:9-25:38
MERGED from [com.android.support:recyclerview-v7:26.0.1] /home/kaushal/.android/build-cache/39fa55eb41a174c82f503b4b29a7e8f061cede20/output/AndroidManifest.xml:23:9-25:38
MERGED from [com.android.support:transition:26.0.1] /home/kaushal/.android/build-cache/dfceb27e6c8007d9ba8f387b556ee270dfe61ca1/output/AndroidManifest.xml:23:9-25:38
MERGED from [com.android.support:customtabs:26.0.1] /home/kaushal/.android/build-cache/4f82ff207204f77c409b7951ddfabc1f909f7ec2/output/AndroidManifest.xml:23:9-25:38
MERGED from [com.android.support:cardview-v7:26.0.1] /home/kaushal/.android/build-cache/78a0c72abcc0fd1a686882616737b74b3a418bb6/output/AndroidManifest.xml:23:9-25:38
MERGED from [com.android.support:support-v4:26.0.1] /home/kaushal/.android/build-cache/df23f151ed18be3186a82fa15c7896633c97e4a8/output/AndroidManifest.xml:26:9-28:38
MERGED from [com.android.support:support-media-compat:26.0.1] /home/kaushal/.android/build-cache/fddc78a1b0141086d120e55e04b5c9bbd53602a7/output/AndroidManifest.xml:26:9-28:38
MERGED from [com.android.support:support-fragment:26.0.1] /home/kaushal/.android/build-cache/38a64207e3f4373ab7b21874e153c42323d47b19/output/AndroidManifest.xml:26:9-28:38
MERGED from [com.android.support:support-core-ui:26.0.1] /home/kaushal/.android/build-cache/5c40f2461f0eea5917b6c6d62e93a85343130867/output/AndroidManifest.xml:26:9-28:38
MERGED from [com.android.support:support-core-utils:26.0.1] /home/kaushal/.android/build-cache/5a1a760a3ecdb2f7c628b9a94a39ff7f535bf3c9/output/AndroidManifest.xml:26:9-28:38
MERGED from [com.android.support:support-compat:26.0.1] /home/kaushal/.android/build-cache/40a0a301f011fcc769e3f6fac5a67598282d7994/output/AndroidManifest.xml:26:9-28:38
	android:value
		ADDED from [com.android.support:design:26.0.1] /home/kaushal/.android/build-cache/b9f63f6d07031a90e0d9be65351bb6e67273d7f7/output/AndroidManifest.xml:28:13-35
	android:name
		ADDED from [com.android.support:design:26.0.1] /home/kaushal/.android/build-cache/b9f63f6d07031a90e0d9be65351bb6e67273d7f7/output/AndroidManifest.xml:27:13-51
activity#com.google.android.gms.auth.api.signin.internal.SignInHubActivity
ADDED from [com.google.android.gms:play-services-auth:11.0.4] /home/kaushal/.android/build-cache/a52172e381e030c34509d80dd218a0603bc9fc17/output/AndroidManifest.xml:20:9-189
	android:excludeFromRecents
		ADDED from [com.google.android.gms:play-services-auth:11.0.4] /home/kaushal/.android/build-cache/a52172e381e030c34509d80dd218a0603bc9fc17/output/AndroidManifest.xml:20:129-162
	android:exported
		ADDED from [com.google.android.gms:play-services-auth:11.0.4] /home/kaushal/.android/build-cache/a52172e381e030c34509d80dd218a0603bc9fc17/output/AndroidManifest.xml:20:163-187
	android:theme
		ADDED from [com.google.android.gms:play-services-auth:11.0.4] /home/kaushal/.android/build-cache/a52172e381e030c34509d80dd218a0603bc9fc17/output/AndroidManifest.xml:20:69-128
	android:name
		ADDED from [com.google.android.gms:play-services-auth:11.0.4] /home/kaushal/.android/build-cache/a52172e381e030c34509d80dd218a0603bc9fc17/output/AndroidManifest.xml:20:19-68
service#com.google.android.gms.auth.api.signin.RevocationBoundService
ADDED from [com.google.android.gms:play-services-auth:11.0.4] /home/kaushal/.android/build-cache/a52172e381e030c34509d80dd218a0603bc9fc17/output/AndroidManifest.xml:24:9-184
	android:exported
		ADDED from [com.google.android.gms:play-services-auth:11.0.4] /home/kaushal/.android/build-cache/a52172e381e030c34509d80dd218a0603bc9fc17/output/AndroidManifest.xml:24:64-87
	android:permission
		ADDED from [com.google.android.gms:play-services-auth:11.0.4] /home/kaushal/.android/build-cache/a52172e381e030c34509d80dd218a0603bc9fc17/output/AndroidManifest.xml:24:88-182
	android:name
		ADDED from [com.google.android.gms:play-services-auth:11.0.4] /home/kaushal/.android/build-cache/a52172e381e030c34509d80dd218a0603bc9fc17/output/AndroidManifest.xml:24:18-63
activity#com.google.android.gms.common.api.GoogleApiActivity
ADDED from [com.google.android.gms:play-services-base:11.0.4] /home/kaushal/.android/build-cache/43462244de4b3268ebf63b8b0c5faeaaa4ff7e00/output/AndroidManifest.xml:19:9-172
	android:exported
		ADDED from [com.google.android.gms:play-services-base:11.0.4] /home/kaushal/.android/build-cache/43462244de4b3268ebf63b8b0c5faeaaa4ff7e00/output/AndroidManifest.xml:19:146-170
	android:theme
		ADDED from [com.google.android.gms:play-services-base:11.0.4] /home/kaushal/.android/build-cache/43462244de4b3268ebf63b8b0c5faeaaa4ff7e00/output/AndroidManifest.xml:19:86-145
	android:name
		ADDED from [com.google.android.gms:play-services-base:11.0.4] /home/kaushal/.android/build-cache/43462244de4b3268ebf63b8b0c5faeaaa4ff7e00/output/AndroidManifest.xml:19:19-85
receiver#com.google.android.gms.measurement.AppMeasurementReceiver
ADDED from [com.google.firebase:firebase-analytics:11.0.4] /home/kaushal/.android/build-cache/49bd276f02df9a050cca62c5a2276ef36d48144b/output/AndroidManifest.xml:25:7-26:18
MERGED from [com.google.firebase:firebase-analytics-impl:11.0.4] /home/kaushal/.android/build-cache/d64b43b4a70c1eca2e8c9b068bd5a06f9d3f2573/output/AndroidManifest.xml:25:7-26:18
	android:enabled
		ADDED from [com.google.firebase:firebase-analytics:11.0.4] /home/kaushal/.android/build-cache/49bd276f02df9a050cca62c5a2276ef36d48144b/output/AndroidManifest.xml:25:90-112
	android:exported
		ADDED from [com.google.firebase:firebase-analytics:11.0.4] /home/kaushal/.android/build-cache/49bd276f02df9a050cca62c5a2276ef36d48144b/output/AndroidManifest.xml:25:113-137
	android:name
		ADDED from [com.google.firebase:firebase-analytics:11.0.4] /home/kaushal/.android/build-cache/49bd276f02df9a050cca62c5a2276ef36d48144b/output/AndroidManifest.xml:25:17-89
receiver#com.google.android.gms.measurement.AppMeasurementInstallReferrerReceiver
ADDED from [com.google.firebase:firebase-analytics:11.0.4] /home/kaushal/.android/build-cache/49bd276f02df9a050cca62c5a2276ef36d48144b/output/AndroidManifest.xml:27:7-31:18
	android:enabled
		ADDED from [com.google.firebase:firebase-analytics:11.0.4] /home/kaushal/.android/build-cache/49bd276f02df9a050cca62c5a2276ef36d48144b/output/AndroidManifest.xml:27:162-184
	android:exported
		ADDED from [com.google.firebase:firebase-analytics:11.0.4] /home/kaushal/.android/build-cache/49bd276f02df9a050cca62c5a2276ef36d48144b/output/AndroidManifest.xml:27:185-208
	android:permission
		ADDED from [com.google.firebase:firebase-analytics:11.0.4] /home/kaushal/.android/build-cache/49bd276f02df9a050cca62c5a2276ef36d48144b/output/AndroidManifest.xml:27:105-161
	android:name
		ADDED from [com.google.firebase:firebase-analytics:11.0.4] /home/kaushal/.android/build-cache/49bd276f02df9a050cca62c5a2276ef36d48144b/output/AndroidManifest.xml:27:17-104
intent-filter#com.android.vending.INSTALL_REFERRER
ADDED from [com.google.firebase:firebase-analytics:11.0.4] /home/kaushal/.android/build-cache/49bd276f02df9a050cca62c5a2276ef36d48144b/output/AndroidManifest.xml:28:11-30:27
action#com.android.vending.INSTALL_REFERRER
ADDED from [com.google.firebase:firebase-analytics:11.0.4] /home/kaushal/.android/build-cache/49bd276f02df9a050cca62c5a2276ef36d48144b/output/AndroidManifest.xml:29:15-76
	android:name
		ADDED from [com.google.firebase:firebase-analytics:11.0.4] /home/kaushal/.android/build-cache/49bd276f02df9a050cca62c5a2276ef36d48144b/output/AndroidManifest.xml:29:23-74
service#com.google.android.gms.measurement.AppMeasurementService
ADDED from [com.google.firebase:firebase-analytics:11.0.4] /home/kaushal/.android/build-cache/49bd276f02df9a050cca62c5a2276ef36d48144b/output/AndroidManifest.xml:32:7-137
MERGED from [com.google.firebase:firebase-analytics-impl:11.0.4] /home/kaushal/.android/build-cache/d64b43b4a70c1eca2e8c9b068bd5a06f9d3f2573/output/AndroidManifest.xml:27:7-137
	android:enabled
		ADDED from [com.google.firebase:firebase-analytics:11.0.4] /home/kaushal/.android/build-cache/49bd276f02df9a050cca62c5a2276ef36d48144b/output/AndroidManifest.xml:32:88-110
	android:exported
		ADDED from [com.google.firebase:firebase-analytics:11.0.4] /home/kaushal/.android/build-cache/49bd276f02df9a050cca62c5a2276ef36d48144b/output/AndroidManifest.xml:32:111-135
	android:name
		ADDED from [com.google.firebase:firebase-analytics:11.0.4] /home/kaushal/.android/build-cache/49bd276f02df9a050cca62c5a2276ef36d48144b/output/AndroidManifest.xml:32:16-87
service#com.google.android.gms.measurement.AppMeasurementJobService
ADDED from [com.google.firebase:firebase-analytics:11.0.4] /home/kaushal/.android/build-cache/49bd276f02df9a050cca62c5a2276ef36d48144b/output/AndroidManifest.xml:33:7-197
	android:enabled
		ADDED from [com.google.firebase:firebase-analytics:11.0.4] /home/kaushal/.android/build-cache/49bd276f02df9a050cca62c5a2276ef36d48144b/output/AndroidManifest.xml:33:148-170
	android:exported
		ADDED from [com.google.firebase:firebase-analytics:11.0.4] /home/kaushal/.android/build-cache/49bd276f02df9a050cca62c5a2276ef36d48144b/output/AndroidManifest.xml:33:171-195
	android:permission
		ADDED from [com.google.firebase:firebase-analytics:11.0.4] /home/kaushal/.android/build-cache/49bd276f02df9a050cca62c5a2276ef36d48144b/output/AndroidManifest.xml:33:91-147
	android:name
		ADDED from [com.google.firebase:firebase-analytics:11.0.4] /home/kaushal/.android/build-cache/49bd276f02df9a050cca62c5a2276ef36d48144b/output/AndroidManifest.xml:33:16-90
permission#${applicationId}.permission.C2D_MESSAGE
ADDED from [com.google.firebase:firebase-iid:11.0.4] /home/kaushal/.android/build-cache/325324efb54d23c29a28d15fa016bcb5ee2cb237/output/AndroidManifest.xml:24:5-109
	android:protectionLevel
		ADDED from [com.google.firebase:firebase-iid:11.0.4] /home/kaushal/.android/build-cache/325324efb54d23c29a28d15fa016bcb5ee2cb237/output/AndroidManifest.xml:24:72-107
	android:name
		ADDED from [com.google.firebase:firebase-iid:11.0.4] /home/kaushal/.android/build-cache/325324efb54d23c29a28d15fa016bcb5ee2cb237/output/AndroidManifest.xml:24:17-71
uses-permission#${applicationId}.permission.C2D_MESSAGE
ADDED from [com.google.firebase:firebase-iid:11.0.4] /home/kaushal/.android/build-cache/325324efb54d23c29a28d15fa016bcb5ee2cb237/output/AndroidManifest.xml:26:5-78
	android:name
		ADDED from [com.google.firebase:firebase-iid:11.0.4] /home/kaushal/.android/build-cache/325324efb54d23c29a28d15fa016bcb5ee2cb237/output/AndroidManifest.xml:26:22-76
receiver#com.google.firebase.iid.FirebaseInstanceIdReceiver
ADDED from [com.google.firebase:firebase-iid:11.0.4] /home/kaushal/.android/build-cache/325324efb54d23c29a28d15fa016bcb5ee2cb237/output/AndroidManifest.xml:30:9-35:20
	android:exported
		ADDED from [com.google.firebase:firebase-iid:11.0.4] /home/kaushal/.android/build-cache/325324efb54d23c29a28d15fa016bcb5ee2cb237/output/AndroidManifest.xml:30:85-108
	android:permission
		ADDED from [com.google.firebase:firebase-iid:11.0.4] /home/kaushal/.android/build-cache/325324efb54d23c29a28d15fa016bcb5ee2cb237/output/AndroidManifest.xml:30:109-169
	android:name
		ADDED from [com.google.firebase:firebase-iid:11.0.4] /home/kaushal/.android/build-cache/325324efb54d23c29a28d15fa016bcb5ee2cb237/output/AndroidManifest.xml:30:19-84
intent-filter#${applicationId}+com.google.android.c2dm.intent.RECEIVE
ADDED from [com.google.firebase:firebase-iid:11.0.4] /home/kaushal/.android/build-cache/325324efb54d23c29a28d15fa016bcb5ee2cb237/output/AndroidManifest.xml:31:13-34:29
action#com.google.android.c2dm.intent.RECEIVE
ADDED from [com.google.firebase:firebase-iid:11.0.4] /home/kaushal/.android/build-cache/325324efb54d23c29a28d15fa016bcb5ee2cb237/output/AndroidManifest.xml:32:17-80
	android:name
		ADDED from [com.google.firebase:firebase-iid:11.0.4] /home/kaushal/.android/build-cache/325324efb54d23c29a28d15fa016bcb5ee2cb237/output/AndroidManifest.xml:32:25-78
category#${applicationId}
ADDED from [com.google.firebase:firebase-iid:11.0.4] /home/kaushal/.android/build-cache/325324efb54d23c29a28d15fa016bcb5ee2cb237/output/AndroidManifest.xml:33:17-60
	android:name
		ADDED from [com.google.firebase:firebase-iid:11.0.4] /home/kaushal/.android/build-cache/325324efb54d23c29a28d15fa016bcb5ee2cb237/output/AndroidManifest.xml:33:27-58
receiver#com.google.firebase.iid.FirebaseInstanceIdInternalReceiver
ADDED from [com.google.firebase:firebase-iid:11.0.4] /home/kaushal/.android/build-cache/325324efb54d23c29a28d15fa016bcb5ee2cb237/output/AndroidManifest.xml:39:9-119
	android:exported
		ADDED from [com.google.firebase:firebase-iid:11.0.4] /home/kaushal/.android/build-cache/325324efb54d23c29a28d15fa016bcb5ee2cb237/output/AndroidManifest.xml:39:93-117
	android:name
		ADDED from [com.google.firebase:firebase-iid:11.0.4] /home/kaushal/.android/build-cache/325324efb54d23c29a28d15fa016bcb5ee2cb237/output/AndroidManifest.xml:39:19-92
service#com.google.firebase.iid.FirebaseInstanceIdService
ADDED from [com.google.firebase:firebase-iid:11.0.4] /home/kaushal/.android/build-cache/325324efb54d23c29a28d15fa016bcb5ee2cb237/output/AndroidManifest.xml:43:9-47:19
	android:exported
		ADDED from [com.google.firebase:firebase-iid:11.0.4] /home/kaushal/.android/build-cache/325324efb54d23c29a28d15fa016bcb5ee2cb237/output/AndroidManifest.xml:43:83-106
	android:name
		ADDED from [com.google.firebase:firebase-iid:11.0.4] /home/kaushal/.android/build-cache/325324efb54d23c29a28d15fa016bcb5ee2cb237/output/AndroidManifest.xml:43:18-82
intent-filter#com.google.firebase.INSTANCE_ID_EVENT
ADDED from [com.google.firebase:firebase-iid:11.0.4] /home/kaushal/.android/build-cache/325324efb54d23c29a28d15fa016bcb5ee2cb237/output/AndroidManifest.xml:44:13-46:29
	android:priority
		ADDED from [com.google.firebase:firebase-iid:11.0.4] /home/kaushal/.android/build-cache/325324efb54d23c29a28d15fa016bcb5ee2cb237/output/AndroidManifest.xml:44:28-51
action#com.google.firebase.INSTANCE_ID_EVENT
ADDED from [com.google.firebase:firebase-iid:11.0.4] /home/kaushal/.android/build-cache/325324efb54d23c29a28d15fa016bcb5ee2cb237/output/AndroidManifest.xml:45:17-79
	android:name
		ADDED from [com.google.firebase:firebase-iid:11.0.4] /home/kaushal/.android/build-cache/325324efb54d23c29a28d15fa016bcb5ee2cb237/output/AndroidManifest.xml:45:25-77
provider#com.google.firebase.provider.FirebaseInitProvider
ADDED from [com.google.firebase:firebase-common:11.0.4] /home/kaushal/.android/build-cache/e4b22029132db85db4f061e5f8657fdb5ca558b9/output/AndroidManifest.xml:6:9-194
	android:authorities
		ADDED from [com.google.firebase:firebase-common:11.0.4] /home/kaushal/.android/build-cache/e4b22029132db85db4f061e5f8657fdb5ca558b9/output/AndroidManifest.xml:6:19-78
	android:exported
		ADDED from [com.google.firebase:firebase-common:11.0.4] /home/kaushal/.android/build-cache/e4b22029132db85db4f061e5f8657fdb5ca558b9/output/AndroidManifest.xml:6:144-168
	android:initOrder
		ADDED from [com.google.firebase:firebase-common:11.0.4] /home/kaushal/.android/build-cache/e4b22029132db85db4f061e5f8657fdb5ca558b9/output/AndroidManifest.xml:6:169-192
	android:name
		ADDED from [com.google.firebase:firebase-common:11.0.4] /home/kaushal/.android/build-cache/e4b22029132db85db4f061e5f8657fdb5ca558b9/output/AndroidManifest.xml:6:79-143
